[
  {
    "orientation": "horizontal",
    "dividerPosition": 50
  },
  [
    {
      "orientation": "vertical",
      "dividerPosition": 50
    },
    {
      "url": "http://maxludwig.de"
    },
    {
      "url": "http://danjou.de"
    }
  ],
  {
    "url": "http://jump.maxludwig.de"
  }
]
